<?xml version="1.0" encoding="UTF-8"?>
<!DOCTYPE svg PUBLIC '-//W3C//DTD SVG 1.0//EN'
          'http://www.w3.org/TR/2001/REC-SVG-20010904/DTD/svg10.dtd'>
<svg fill-opacity="1" xmlns:xlink="http://www.w3.org/1999/xlink" color-rendering="auto" color-interpolation="auto" text-rendering="auto" stroke="black" stroke-linecap="square" width="900" stroke-miterlimit="10" shape-rendering="auto" stroke-opacity="1" fill="black" stroke-dasharray="none" font-weight="normal" stroke-width="1" viewBox="40 120 900 400" height="400" xmlns="http://www.w3.org/2000/svg" font-family="'Dialog'" font-style="normal" stroke-linejoin="miter" font-size="12px" stroke-dashoffset="0" image-rendering="auto"
><!--Generated by the Batik Graphics2D SVG Generator--><defs id="genericDefs"
  /><g
  ><defs id="defs1"
    ><clipPath clipPathUnits="userSpaceOnUse" id="clipPath1"
      ><path d="M0 0 L2147483647 0 L2147483647 2147483647 L0 2147483647 L0 0 Z"
      /></clipPath
      ><clipPath clipPathUnits="userSpaceOnUse" id="clipPath2"
      ><path d="M0 0 L0 190 L210 190 L210 0 Z"
      /></clipPath
      ><clipPath clipPathUnits="userSpaceOnUse" id="clipPath3"
      ><path d="M0 0 L0 170 L320 170 L320 0 Z"
      /></clipPath
      ><clipPath clipPathUnits="userSpaceOnUse" id="clipPath4"
      ><path d="M0 0 L0 180 L320 180 L320 0 Z"
      /></clipPath
    ></defs
    ><g fill="rgb(255,255,255)" fill-opacity="0" transform="translate(390,150)" stroke-opacity="0" stroke="rgb(255,255,255)"
    ><rect x="0.5" width="208.5" height="188.5" y="0.5" clip-path="url(#clipPath2)" stroke="none"
    /></g
    ><g transform="translate(390,150)"
    ><rect fill="none" x="0.5" width="208.5" height="188.5" y="0.5" clip-path="url(#clipPath2)"
      /><text x="47" font-size="14px" y="17.9688" clip-path="url(#clipPath2)" font-family="sans-serif" stroke="none" xml:space="preserve"
      >«Interface» Queue</text
      ><text x="96" font-size="14px" y="33.9375" clip-path="url(#clipPath2)" font-family="sans-serif" stroke="none" xml:space="preserve"
      >{T}</text
      ><path fill="none" d="M1 39.9375 L209 39.9375" clip-path="url(#clipPath2)"
      /><path fill="none" d="M1 44.9375 L209 44.9375" clip-path="url(#clipPath2)"
      /><text x="5" font-size="14px" y="59.9062" clip-path="url(#clipPath2)" font-family="sans-serif" stroke="none" xml:space="preserve"
      >+add(item: T)</text
      ><text x="5" font-size="14px" y="75.875" clip-path="url(#clipPath2)" font-family="sans-serif" stroke="none" xml:space="preserve"
      >+remove(): T</text
      ><text x="5" font-size="14px" y="91.8438" clip-path="url(#clipPath2)" font-family="sans-serif" stroke="none" xml:space="preserve"
      >+isEmpty(): bool</text
      ><text x="5" font-size="14px" y="107.8125" clip-path="url(#clipPath2)" font-family="sans-serif" stroke="none" xml:space="preserve"
      >+isFull(): bool</text
      ><text x="5" font-size="14px" y="123.7812" clip-path="url(#clipPath2)" font-family="sans-serif" stroke="none" xml:space="preserve"
      >+size(): int</text
    ></g
    ><g fill="rgb(255,255,255)" fill-opacity="0" transform="translate(60,150)" stroke-opacity="0" stroke="rgb(255,255,255)"
    ><rect x="0.5" width="208.5" height="188.5" y="0.5" clip-path="url(#clipPath2)" stroke="none"
    /></g
    ><g transform="translate(60,150)"
    ><rect fill="none" x="0.5" width="208.5" height="188.5" y="0.5" clip-path="url(#clipPath2)"
      /><text x="73" font-size="14px" y="17.9688" clip-path="url(#clipPath2)" font-family="sans-serif" stroke="none" xml:space="preserve"
      >QueueList</text
      ><text x="96" font-size="14px" y="33.9375" clip-path="url(#clipPath2)" font-family="sans-serif" stroke="none" xml:space="preserve"
      >{T}</text
      ><path fill="none" d="M1 39.9375 L209 39.9375" clip-path="url(#clipPath2)"
      /><text x="5" font-size="14px" y="54.9062" clip-path="url(#clipPath2)" font-family="sans-serif" stroke="none" xml:space="preserve"
      >-data: List&lt;T&gt;</text
      ><path fill="none" d="M1 60.9062 L209 60.9062" clip-path="url(#clipPath2)"
      /><text x="5" font-size="14px" y="75.875" clip-path="url(#clipPath2)" font-family="sans-serif" stroke="none" xml:space="preserve"
      >+add(item: T)</text
      ><text x="5" font-size="14px" y="91.8438" clip-path="url(#clipPath2)" font-family="sans-serif" stroke="none" xml:space="preserve"
      >+remove(): T</text
      ><text x="5" font-size="14px" y="107.8125" clip-path="url(#clipPath2)" font-family="sans-serif" stroke="none" xml:space="preserve"
      >+size(): int</text
      ><path fill="none" d="M1 113.8125 L209 113.8125" clip-path="url(#clipPath2)"
    /></g
    ><g fill="rgb(255,255,255)" fill-opacity="0" transform="translate(710,140)" stroke-opacity="0" stroke="rgb(255,255,255)"
    ><rect x="0.5" width="208.5" height="188.5" y="0.5" clip-path="url(#clipPath2)" stroke="none"
    /></g
    ><g transform="translate(710,140)"
    ><rect fill="none" x="0.5" width="208.5" height="188.5" y="0.5" clip-path="url(#clipPath2)"
      /><text x="67" font-size="14px" y="17.9688" clip-path="url(#clipPath2)" font-family="sans-serif" stroke="none" xml:space="preserve"
      >QueueArray</text
      ><text x="96" font-size="14px" y="33.9375" clip-path="url(#clipPath2)" font-family="sans-serif" stroke="none" xml:space="preserve"
      >{T}</text
      ><path fill="none" d="M1 39.9375 L209 39.9375" clip-path="url(#clipPath2)"
      /><text x="5" font-size="14px" y="54.9062" clip-path="url(#clipPath2)" font-family="sans-serif" stroke="none" xml:space="preserve"
      >-data[]: T</text
      ><text x="5" font-size="14px" y="70.875" clip-path="url(#clipPath2)" font-family="sans-serif" stroke="none" xml:space="preserve"
      >-counter: int</text
      ><path fill="none" d="M1 76.875 L209 76.875" clip-path="url(#clipPath2)"
      /><text x="5" font-size="14px" y="91.8438" clip-path="url(#clipPath2)" font-family="sans-serif" stroke="none" xml:space="preserve"
      >+add(item: T)</text
      ><text x="5" font-size="14px" y="107.8125" clip-path="url(#clipPath2)" font-family="sans-serif" stroke="none" xml:space="preserve"
      >+remove(): T</text
      ><text x="5" font-size="14px" y="123.7812" clip-path="url(#clipPath2)" font-family="sans-serif" stroke="none" xml:space="preserve"
      >+isEmpty(): bool</text
      ><text x="5" font-size="14px" y="139.75" clip-path="url(#clipPath2)" font-family="sans-serif" stroke="none" xml:space="preserve"
      >+isFull(): bool</text
      ><text x="5" font-size="14px" y="155.7188" clip-path="url(#clipPath2)" font-family="sans-serif" stroke="none" xml:space="preserve"
      >+size(): int</text
    ></g
    ><g stroke-dasharray="8,5" stroke-miterlimit="5" transform="translate(160,330)" stroke-linecap="butt"
    ><path fill="none" d="M300.5 11.5 L300.5 150.5" clip-path="url(#clipPath3)"
      /><path fill="none" d="M300.5 150.5 L10.5 150.5" clip-path="url(#clipPath3)"
      /><path fill="none" d="M10.5 150.5 L10.5 10.5" clip-path="url(#clipPath3)"
      /><path fill="white" d="M294 22.2583 L300.5 11 L307 22.2583 Z" clip-path="url(#clipPath3)" stroke="none"
      /><path fill="none" stroke-miterlimit="10" stroke-dasharray="none" d="M294 22.2583 L300.5 11 L307 22.2583 Z" clip-path="url(#clipPath3)" stroke-linecap="square"
    /></g
    ><g font-family="sans-serif" font-size="14px" transform="translate(160,330)"
    ><text x="127.541" xml:space="preserve" y="146" clip-path="url(#clipPath3)" stroke="none"
      >«realize»</text
    ></g
    ><g stroke-dasharray="8,5" stroke-miterlimit="5" transform="translate(520,320)" stroke-linecap="butt"
    ><path fill="none" d="M10.5 21.5 L10.5 160.5" clip-path="url(#clipPath4)"
      /><path fill="none" d="M10.5 160.5 L300.5 160.5" clip-path="url(#clipPath4)"
      /><path fill="none" d="M300.5 160.5 L300.5 10.5" clip-path="url(#clipPath4)"
      /><path fill="white" d="M4 32.2583 L10.5 21 L17 32.2583 Z" clip-path="url(#clipPath4)" stroke="none"
      /><path fill="none" stroke-miterlimit="10" stroke-dasharray="none" d="M4 32.2583 L10.5 21 L17 32.2583 Z" clip-path="url(#clipPath4)" stroke-linecap="square"
    /></g
    ><g font-family="sans-serif" font-size="14px" transform="translate(520,320)"
    ><text x="127.541" xml:space="preserve" y="156" clip-path="url(#clipPath4)" stroke="none"
      >«realize»</text
    ></g
  ></g
></svg
>
